Layered TestBench/simvision.vcd
$comment
TOOL:	simvision(64)	15.20-s086
$end

$date
    Nov 21, 2023 12:24:57
$end

$timescale
    1ns
$end


$scope module tb_top $end

$scope module dut $end
$var wire 1 ! GREEN_LED $end
$var wire 7 " HEX_1 [6:0] $end
$var wire 7 # HEX_2 [6:0] $end
$var wire 1 $ RED_LED $end
$var wire 1 % clk $end
$var integer 32 & counter_wait [31:0] $end
$var wire 3 ' current_state $end
$var wire 1 ( green_tmp $end
$var wire 3 ) next_state [2:0] $end
$var wire 2 * password_1 [1:0] $end
$var wire 2 + password_2 [1:0] $end
$var wire 1 , red_tmp $end
$var wire 1 - reset_n $end
$var wire 1 . sensor_entrance $end
$var wire 1 / sensor_exit $end
$upscope $end

$upscope $end

$enddefinitions $end
#0
$dumpvars
x!
bx "
bx #
x$
0%
bx &
bx '
x(
b0 )
b0 *
b0 +
x,
1-
0.
0/
$end
#5
0!
b1111111 "
0$
0(
1%
b1111111 #
b0 &
0,
b0 '
#10
0%
#15
1%
#20
0%
#25
1%
#30
0%
#35
1%
#40
0%
#45
1%
#50
0%
#55
1%
#60
0%
#65
1%
#70
0%
#75
1%
#80
0%
#85
1%
#90
0%
#95
1%
#100
0%
b1 )
b11 *
b10 +
0-
1.
1/
#105
1%
#110
0%
#115
1%
b0 *
b1 +
#120
0%
#125
1%
#130
0%
#135
1%
b10 +
b10 *
#140
0%
#145
1%
#150
0%
#155
1%
b1 *
0/
b1 +
#160
0%
#165
1%
#170
0%
#175
1%
#180
0%
#185
1%
#190
0%
#195
1%
b0 +
b0 )
1/
0.
#200
0%
1-
#205
1%
#210
0%
#215
1%
b11 +
b11 *
#220
0%
#225
1%
#230
0%
#235
1%
b10 *
b10 +
1.
0/
b1 )
#240
0%
#245
1%
b110 "
1$
b1 '
b101011 #
1,
#250
0%
#255
1%
b11 +
b1 *
1/
b1 &
#260
0%
#265
1%
b10 &
#270
0%
#275
1%
b11 &
b1 +
0/
0.
#280
0%
#285
1%
b10 )
b100 &
#290
0%
#295
1%
b101 &
1.
0,
1/
b110 #
b10 '
0$
b0 +
b0 *
#300
0%
b0 &
b1 )
b0 '
0-
#305
1%
b1111111 "
b1111111 #
#310
0%
#315
1%
b10 *
0/
b11 +
#320
0%
#325
1%
#330
0%
#335
1%
b10 +
0.
1/
b0 )
#340
0%
#345
1%
#350
0%
#355
1%
b1 )
b0 +
0/
1.
#360
0%
#365
1%
#370
0%
#375
1%
b11 +
b1 *
#380
0%
#385
1%
#390
0%
#395
1%
b11 *
b0 +
#400
1-
0%
#405
1%
b101011 #
b110 "
1,
b1 '
1$
#410
0%
#415
1%
b11 +
b1 &
0.
b0 *
1/
#420
0%
#425
1%
b10 &
#430
0%
#435
1%
b11 &
b1 +
b10 *
1.
#440
0%
#445
1%
b10 )
b100 &
#450
0%
#455
1%
b101 &
0$
b110 #
b10 +
0,
b10 '
#460
0%
#465
1%
b0 &
1,
1$
#470
0%
#475
1%
0$
0.
b11 )
0/
0,
b1 *
#480
0%
#485
1%
1!
1(
b11 '
b10 "
b1000000 #
#490
0%
#495
1%
0(
b0 *
0!
1.
b1 +
#500
0%
b1 )
0-
b0 '
#505
1%
b1111111 #
b1111111 "
#510
0%
#515
1%
b10 +
b11 *
1/
#520
0%
#525
1%
#530
0%
#535
1%
0/
b10 *
0.
b0 )
#540
0%
#545
1%
#550
0%
#555
1%
b11 +
1/
b0 *
#560
0%
#565
1%
#570
0%
#575
1%
b10 +
#580
0%
#585
1%
#590
0%
#595
1%
b1 *
b1 )
b1 +
1.
#600
0%
1-
#605
b110 "
b1 '
1$
1%
1,
b101011 #
#610
0%
#615
1%
b11 *
0/
b1 &
#620
0%
#625
1%
b10 &
#630
0%
#635
1%
b11 &
b1 *
#640
0%
#645
1%
b100 &
b10 )
#650
0%
#655
1%
b11 *
b10 '
b101 &
0,
0$
b11 +
b110 #
#660
0%
#665
1%
b0 &
1$
1,
#670
0%
#675
1%
0,
b0 +
0$
#680
0%
#685
1%
1$
1,
#690
0%
#695
1%
b1 *
0,
0$
1/
#700
0%
0-
b1 )
b0 '
#705
1%
b1111111 #
b1111111 "
#710
0%
#715
1%
0/
b1 +
b11 *
#720
0%
#725
1%
#730
0%
#735
1%
b1 *
0.
b0 +
b0 )
#740
0%
#745
1%
#750
0%
#755
1%
b1 )
b10 +
1.
#760
0%
#765
1%
#770
0%
#775
1%
0.
b11 *
b0 )
1/
#780
0%
#785
1%
#790
0%
#795
1%
0/
1.
b1 )
b11 +
b0 *
#800
0%
1-
#805
b110 "
b101011 #
b1 '
1%
1$
1,
#810
0%
#815
1%
1/
0.
b0 +
b1 &
#820
0%
#825
1%
b10 &
#830
0%
#835
1%
b11 &
b1 *
b11 +
0/
#840
0%
#845
1%
b100 &
b10 )
#850
0%
#855
1%
b110 #
b101 &
b10 '
0,
b1 +
1.
0$
#860
0%
#865
1%
1$
b0 &
1,
#870
0%
#875
1%
0,
0.
b0 *
0$
#880
0%
#885
1%
1$
1,
#890
0%
#895
1%
0,
0$
b11 *
1.
b11 +
#900
0%
b1 )
0-
b0 '
#905
1%
b1111111 "
b1111111 #
#910
0%
#915
1%
b10 +
#920
0%
#925
1%
#930
0%
#935
1%
b11 +
#940
0%
#945
1%
#950
0%
#955
1%
b0 +
b0 )
0.
b1 *
#960
0%
#965
1%
#970
0%
#975
1%
b10 *
1/
b10 +
1.
b1 )
#980
0%
#985
1%
#990
0%
#995
1%
b11 *
b1 +
#1000
0%
1-
#1005
b101011 #
b1 '
1%
1,
b110 "
1$
#1010
0%
#1015
1%
b0 +
0/
b1 &
b10 *
0.
#1020
0%
#1025
1%
b10 &
#1030
0%
#1035
1%
1.
b1 +
b11 &
b1 *
#1040
0%
#1045
1%
b10 )
b100 &
#1050
0%
#1055
1%
b101 &
b110 #
1/
b10 '
0$
0,
#1060
0%
#1065
1%
1,
b0 &
1$
#1070
0%
#1075
1%
0$
0,
0.
b0 *
b0 +
#1080
0%
#1085
1%
1$
1,
#1090
0%
#1095
1%
0,
b10 +
1.
0$
b1 *
0/
b11 )
#1100
b1 )
0%
0-
b0 '
#1105
1%
b1111111 #
b1111111 "
#1110
0%
#1115
1%
0.
b0 )
b0 +
b10 *
1/
#1120
0%
#1125
1%
#1130
0%
#1135
1%
b0 *
b10 +
#1140
0%
#1145
1%
#1150
0%
#1155
1%
b1 )
1.
b11 *
#1160
0%
#1165
1%
#1170
0%
#1175
1%
b0 *
0/
#1180
0%
#1185
1%
#1190
0%
#1195
1%
1/
b1 *
b0 )
0.
b1 +
#1200
0%
1-
#1205
1%
#1210
0%
#1215
1%
b11 *
1.
b1 )
#1220
0%
#1225
1%
b1 '
1,
1$
b110 "
b101011 #
#1230
0%
#1235
1%
b0 +
0/
0.
b1 *
b1 &
#1240
0%
#1245
1%
b10 &
#1250
0%
#1255
1%
b11 &
b10 +
1.
1/
#1260
0%
#1265
1%
b11 )
b100 &
#1270
0%
#1275
1%
b101 &
0/
1!
b11 '
1(
b1000000 #
b10 "
0,
0$
#1280
0%
#1285
1%
0(
b0 &
0!
#1290
0%
#1295
1%
1!
1/
1(
b100 )
b0 +
b0 *
#1300
0%
b0 '
0-
b1 )
#1305
1%
0(
0!
b1111111 #
b1111111 "
#1310
0%
#1315
1%
b11 *
0/
b10 +
#1320
0%
#1325
1%
#1330
0%
#1335
1%
b0 +
b0 )
1/
0.
#1340
0%
#1345
1%
#1350
0%
#1355
1%
b1 +
#1360
0%
#1365
1%
#1370
0%
#1375
1%
b10 +
1.
b1 *
0/
b1 )
#1380
0%
#1385
1%
#1390
0%
#1395
1%
b11 +
1/
b11 *
#1400
0%
1-
#1405
1$
b110 "
1%
b101011 #
b1 '
1,
#1410
0%
#1415
1%
b10 *
b1 &
0.
0/
#1420
0%
#1425
1%
b10 &
#1430
0%
#1435
1%
b11 &
b11 *
b0 +
#1440
0%
#1445
1%
b100 &
b10 )
#1450
0%
#1455
1%
0$
b101 &
b0 *
1.
0,
b10 '
b110 #
#1460
0%
#1465
1%
1$
b0 &
1,
#1470
0%
#1475
1%
0,
b1 +
0$
0.
#1480
0%
#1485
1%
1,
1$
#1490
0%
#1495
1%
0$
1.
0,
b11 *
b11 +
#1500
0%
b1 )
0-
b0 '
#1505
1%
b1111111 #
b1111111 "
#1510
0%
#1515
1%
b1 +
1/
#1520
0%
#1525
1%
#1530
0%
#1535
1%
0/
b0 )
0.
#1540
0%
#1545
1%
#1550
0%
#1555
1%
b10 +
b0 *
#1560
0%
#1565
1%
#1570
0%
#1575
1%
b1 +
#1580
0%
#1585
1%
#1590
0%
#1595
1%
b1 *
b10 +
#1600
0%
1-
#1605
1%
#1610
0%
#1615
1%
b11 +
1.
b0 *
b1 )
#1620
0%
#1625
1%
1$
b110 "
b1 '
b101011 #
1,
#1630
0%
#1635
1%
b10 +
0.
b1 &
#1640
0%
#1645
1%
b10 &
#1650
0%
#1655
1%
b11 &
1/
b11 *
#1660
0%
#1665
1%
b10 )
b100 &
#1670
0%
#1675
1%
b101 &
0,
0$
b110 #
b11 +
b10 '
#1680
0%
#1685
1%
1,
b0 &
1$
#1690
0%
#1695
1%
0$
b1 *
0,
b11 )
b10 +
#1700
0%
b0 '
b0 )
0-
#1705
1%
b1111111 "
b1111111 #
#1710
0%
#1715
1%
b0 +
0/
1.
b1 )
#1720
0%
#1725
1%
#1730
0%
#1735
1%
#1740
0%
#1745
1%
#1750
0%
#1755
1%
b0 )
0.
1/
#1760
0%
#1765
1%
#1770
0%
#1775
1%
0/
b10 *
#1780
0%
#1785
1%
#1790
0%
#1795
1%
b11 *
b10 +
#1800
0%
1-
#1805
1%
#1810
0%
#1815
1%
b1 +
1/
b1 *
1.
b1 )
#1820
0%
#1825
1%
b101011 #
1,
1$
b1 '
b110 "
#1830
0%
#1835
1%
b0 +
0.
b11 *
b1 &
#1840
0%
#1845
1%
b10 &
#1850
0%
#1855
1%
b11 &
b0 *
b1 +
#1860
0%
#1865
1%
b10 )
b100 &
#1870
0%
#1875
1%
b101 &
b11 +
0,
b110 #
b10 '
0/
0$
b11 *
1.
#1880
0%
#1885
1%
1,
b0 &
1$
#1890
0%
#1895
1%
0$
0,
0.
b10 +
b11 )
b1 *
#1900
0-
0%
b0 )
b0 '
#1905
b1111111 "
1%
b1111111 #
#1910
0%
#1915
1%
b11 *
b0 +
1/
#1920
0%
#1925
1%
#1930
0%
#1935
1%
0/
1.
b11 +
b1 )
b1 *
#1940
0%
#1945
1%
#1950
0%
#1955
1%
b10 *
b1 +
#1960
0%
#1965
1%
#1970
0%
#1975
1%
b11 +
b0 *
0.
b0 )
#1980
0%
#1985
1%
#1990
0%
#1995
1%
1/
b10 +
b11 *
#2000
0%
1-
#2005
1%
#2010
0%
#2015
1%
b10 *
b11 +
#2020
0%
#2025
1%
#2030
0%
#2035
1%
b11 *
#2040
0%
#2045
1%
#2050
0%
#2055
1%
b0 +
b0 *
#2060
0%
#2065
1%
#2070
0%
#2075
1%
b10 *
b11 +
0/
